<svg xmlns="http://www.w3.org/2000/svg" width="20" height="20" viewBox="0 0 20 20">
    <path fill="#DA5200" fill-rule="evenodd" d="M10.666 1.946A1.142 1.142 0 0 0 9.86 0c-.305 0-.591.118-.806.333L5.613 3.775a.16.16 0 0 1-.226 0L1.947.333A1.133 1.133 0 0 0 1.14 0C.835 0 .548.118.333.333A1.133 1.133 0 0 0 0 1.14c0 .305.118.591.333.806l3.442 3.441a.16.16 0 0 1 0 .226L.334 9.054A1.142 1.142 0 0 0 1.14 11c.305 0 .591-.119.806-.334l3.441-3.44a.159.159 0 0 1 .226 0l3.44 3.44c.216.216.502.334.807.334.305 0 .592-.118.807-.333.215-.215.333-.502.333-.807 0-.305-.118-.591-.334-.806L7.225 5.613a.16.16 0 0 1 0-.226l3.441-3.441z"/>
</svg>
