<svg xmlns="http://www.w3.org/2000/svg" width="24" height="20" viewBox="0 0 24 20">
    <path fill="#98b0be" fill-rule="nonzero" d="M17.123.577l6.64 2.998v15.992l-6.64-2.998V.577zm-1.83 0v15.992l-6.64 2.998V3.575l6.64-2.998zM0 .577l6.64 2.998v15.992L0 16.57V.577z"/>
</svg>
