<?xml version="1.0" encoding="UTF-8"?>
<svg width="26px" height="20px" viewBox="0 0 26 20" version="1.1" xmlns="http://www.w3.org/2000/svg" xmlns:xlink="http://www.w3.org/1999/xlink">
    <!-- Generator: Sketch 57.1 (83088) - https://sketch.com -->
    <title>noun_mask_282745@3x</title>
    <desc>Created with Sketch.</desc>
    <g id="Page-1" stroke="none" stroke-width="1" fill="none" fill-rule="evenodd">
        <g id="OMV-Admin/Profile/Media" transform="translate(-1210.000000, -111.000000)" fill="#0097A9">
            <g id="Group-2" transform="translate(1141.000000, 111.000000)">
                <g id="noun_mask_282745" transform="translate(69.000000, 0.000000)">
                    <path d="M10.220703,0 C9.99501985,0 9.79736317,0.151328846 9.738281,0.369141121 C9.359617,1.77139112 9.072105,3.03994692 8.855469,4.21679752 C5.8589772,4.30412552 2.6932987,3.95791252 0.6855469,3.15429742 C0.623445265,3.12964789 0.557033485,3.11769375 0.4902344,3.11914112 C0.21792459,3.12448738 0,3.34677884 0,3.61914112 C0,8.72811152 0.5828412,12.1250045 1.9140625,14.5820315 C3.2452838,17.0390585 5.3233727,18.4862455 8.103516,19.6777345 C8.22946818,19.7318069 8.37209482,19.7318069 8.498047,19.6777345 C10.148233,18.9705125 11.324967,18.1208335 12.402344,17.1074225 C12.718497,17.3853385 13.045577,17.6607525 13.394531,17.9335945 C13.5012308,18.0171248 13.6372622,18.0537756 13.771484,18.0351565 C16.764967,17.6074435 19.146571,16.7507415 21.068359,14.7265635 C22.990147,12.7023835 24.433185,9.57737552 25.763672,4.65039152 C25.8067265,4.49057445 25.7679105,4.31980745 25.6600018,4.19430488 C25.5520931,4.06880231 25.3890742,4.00482651 25.224609,4.02343752 C23.236292,4.25056652 20.342437,3.87508752 17.564453,3.12890672 C14.786469,2.38272632 12.105162,1.25981852 10.515625,0.0957036206 C10.4299409,0.0333602639 10.3266673,0 10.220703,0 Z M10.580078,1.25976612 C12.341111,2.39445992 14.727837,3.40354832 17.304687,4.09570352 C19.881761,4.78791852 22.466928,5.11219752 24.585937,5.00000052 C23.332721,9.42187252 21.992734,12.3002695 20.34375,14.0371095 C18.655764,15.8150295 16.607389,16.5676075 13.849609,16.9882815 C12.214124,15.6846115 11.018266,14.4215035 10.283203,12.8691415 C10.261145,12.8225575 10.245839,12.7717215 10.224609,12.7246095 C10.126951,12.5078885 10.033194,12.2895005 9.953125,12.0605475 C9.856338,11.7837895 9.772097,11.4966365 9.701172,11.1992195 C9.146832,8.87464052 9.436148,5.71365552 10.580078,1.25976612 Z M1.0449219,4.25390652 C3.175406,4.95618052 5.9132145,5.25853152 8.646484,5.19726652 C8.589862,5.71539252 8.537639,6.25384252 8.5,6.66015652 C8.457428,7.10719152 8.432646,7.53634252 8.419922,7.95117252 C8.419062,7.97894152 8.414789,8.00947652 8.414063,8.03710952 C8.392266,8.87543952 8.430727,9.65223452 8.53125,10.3769535 C8.53125,10.3769535 8.53125,10.3789065 8.53125,10.3789065 C8.581373,10.7412625 8.647854,11.0914455 8.728516,11.4296875 C8.809313,11.7685045 8.906326,12.0943455 9.017578,12.4101565 C9.071889,12.5646505 9.137217,12.7114605 9.201172,12.8593755 C8.032742,13.1179815 7.096286,13.0549955 5.7246094,12.5136725 C5.66250774,12.4890231 5.59609596,12.4770691 5.5292969,12.4785165 C5.37569145,12.4821718 5.2322939,12.556241 5.14040979,12.6793885 C5.04852569,12.802536 5.01835701,12.9610886 5.0585938,13.1093755 C5.5081037,14.7789845 6.4566336,15.7360685 8.076172,16.5468755 C8.21695165,16.6172667 8.38265735,16.6172667 8.523437,16.5468755 C9.404261,16.1064645 9.968975,15.5878765 10.398437,14.9882815 C10.403208,14.9946865 10.407323,15.0014165 10.412109,15.0078135 C10.458078,15.0692395 10.515673,15.1285985 10.564453,15.1894535 C10.893964,15.6109435 11.256281,16.0156235 11.654297,16.4101565 C10.709495,17.2931135 9.701737,18.0236095 8.304687,18.6503915 C5.7481083,17.5264935 3.9629475,16.2648915 2.7929688,14.1054695 C1.6494937,11.9949645 1.1013077,8.86194252 1.0449219,4.25390652 Z M13.119141,4.42187552 C12.471769,4.45484452 11.888944,4.61503552 11.355469,4.77539152 C11.047119,4.89975852 10.943815,5.28481452 11.148437,5.54687552 C11.148437,5.54687552 11.150391,5.54882852 11.150391,5.54882852 C11.706238,6.21525552 12.691839,6.98438652 13.078125,7.08789152 C13.809095,7.28029352 14.56754,7.09811152 15.503906,6.72460952 C15.81683,6.60110552 15.92098,6.21005352 15.710937,5.94726652 C15.08653,5.16611452 14.515125,4.63653252 13.789063,4.43554752 C13.558573,4.41332952 13.334931,4.41088552 13.119141,4.42187552 Z M13.011719,5.39453152 C13.221462,5.37697552 13.421565,5.37077852 13.521484,5.39843752 C13.721133,5.45370852 14.271302,5.88107252 14.490234,6.05859452 C14.213013,6.10441452 13.529111,6.17296852 13.332031,6.12109452 C13.133366,6.06880452 12.66387,5.64305452 12.445313,5.46289152 C12.583528,5.44183652 12.801975,5.41208752 13.011719,5.39453152 Z M19.533203,6.14062552 C18.886114,6.17852652 18.305698,6.35030052 17.775391,6.51562552 C17.468647,6.63886352 17.363764,7.02051852 17.564453,7.28320352 L17.566406,7.28320352 C18.116377,7.94822952 18.929668,8.68257552 19.474609,8.82812552 C20.01955,8.97367552 20.957119,8.83917552 21.919922,8.46679752 C22.231876,8.34673252 22.340469,7.96029752 22.136719,7.69531352 C21.510865,6.88116052 20.934144,6.34492052 20.203125,6.15234452 C19.971974,6.12993952 19.748899,6.12799152 19.533203,6.14062552 Z M4.9707031,6.53906352 C4.2145321,6.53906352 3.5263616,6.91975652 2.7148438,7.54492252 C2.4521479,7.74884852 2.4579977,8.14761752 2.7265625,8.34375052 C3.4335763,8.82406552 4.223515,9.23893452 4.9707031,9.29492252 C5.7178912,9.35091252 6.4037117,8.93726152 7.214844,8.34375052 C7.482914,8.14697252 7.487771,7.74821752 7.224609,7.54492252 C6.4135387,6.91973152 5.7268742,6.53906352 4.9707031,6.53906352 Z M19.355469,7.11718752 C19.606487,7.09817352 19.84641,7.09257252 19.947266,7.11914152 C20.147306,7.17184152 20.81867,7.59476652 21.039063,7.77734452 C20.750573,7.82663452 19.928446,7.91360052 19.732422,7.86132852 C19.537177,7.80925852 18.915792,7.37626352 18.699219,7.19335952 C18.842336,7.16862952 19.10445,7.13620252 19.355469,7.11718752 Z M4.9707031,7.53906352 C5.172795,7.53906352 5.8205695,7.80691152 6.078125,7.92773452 C5.8212065,8.04151052 5.1757179,8.29492252 4.9707031,8.29492252 C4.7656882,8.29492252 4.0228335,8.04154652 3.765625,7.92773452 C4.0233272,7.80689252 4.7686112,7.53906252 4.9707031,7.53906352 Z M12.679687,10.3203119 C12.4035561,10.3203119 12.179687,10.5441826 12.179687,10.8203119 C12.179687,12.5523545 12.840595,13.7332005 14.214844,14.9179695 C14.3331975,15.0194057 14.4920834,15.0598494 14.644531,15.0273445 C16.389232,14.6545185 17.494398,13.9844245 18.386719,12.5195315 C18.4863462,12.3566223 18.4844945,12.1511958 18.3819469,11.9901089 C18.2793992,11.829022 18.0940616,11.7404024 17.904297,11.7617195 C15.89742,11.9911855 14.589914,11.6262885 12.980469,10.4199225 C12.8936563,10.3549935 12.7880944,10.3200349 12.679687,10.3203119 L12.679687,10.3203119 Z M13.361328,11.7187505 C14.464197,12.3537585 15.637003,12.6759965 16.914063,12.6894535 C16.365665,13.3052955 15.70807,13.7129265 14.689453,13.9570315 C13.896879,13.2366285 13.521118,12.5419705 13.361328,11.7187505 Z M6.4492188,13.6992195 C7.526005,13.9654085 8.548836,14.0055275 9.605469,13.7558595 C9.66011,13.8453665 9.709766,13.9279385 9.761719,14.0097665 C9.7706,14.0251295 9.778145,14.0413285 9.787109,14.0566415 C9.447049,14.6454855 9.037496,15.0848305 8.300781,15.4980475 C7.364219,14.9999905 6.8191504,14.4318475 6.4492188,13.6992195 Z" id="Shape"></path>
                </g>
            </g>
        </g>
    </g>
</svg>