<svg xmlns="http://www.w3.org/2000/svg" width="20" height="22" viewBox="0 0 20 22">
    <path fill="#0097a9" fill-rule="evenodd" d="M5.071 16.071a.69.69 0 0 0 0 1 .69.69 0 0 0 1 0L15.5 7.643c1-1 1-2.572 0-3.572-.929-.928-2.643-.928-3.571 0L1.357 14.643C.571 15.429.143 16.429.143 17.5c0 1.071.428 2.071 1.214 2.857s1.786 1.214 2.857 1.214c1.072 0 2.072-.428 2.857-1.214L17.857 9.5C18.93 8.429 19.5 7.071 19.5 5.571s-.571-2.857-1.643-3.928a5.518 5.518 0 0 0-7.786 0L.214 11.57a.69.69 0 0 0 0 1 .69.69 0 0 0 1 0l9.857-9.857c1.572-1.571 4.215-1.571 5.786 0a4.046 4.046 0 0 1 1.214 2.929 4.046 4.046 0 0 1-1.214 2.928L6.071 19.357c-1 1-2.714 1-3.642 0-.5-.5-.786-1.143-.786-1.857s.286-1.357.786-1.857l10.5-10.572a1.121 1.121 0 0 1 1.571 0 1.121 1.121 0 0 1 0 1.572L5.071 16.07z"/>
</svg>
