<?xml version="1.0" encoding="UTF-8"?>
<svg width="21px" height="26px" viewBox="0 0 21 26" version="1.1" xmlns="http://www.w3.org/2000/svg" xmlns:xlink="http://www.w3.org/1999/xlink">
    <!-- Generator: sketchtool 53.2 (72643) - https://sketchapp.com -->
    <title>B9606873-9FA6-425E-80EE-449BEFBF7FD1</title>
    <desc>Created with sketchtool.</desc>
    <g id="Page-1" stroke="none" stroke-width="1" fill="none" fill-rule="evenodd" opacity="0.302292597">
        <g id="Media/Players/Details" transform="translate(-269.000000, -227.000000)" fill="#0097A9">
            <g id="Icon---Video" transform="translate(269.000000, 227.000000)">
                <path d="M1.94383651,0.196108949 C1.74945286,0.0980544747 1.45787738,0 1.26349373,0 C0.583150952,0 0,0.588326848 0,1.27470817 L0,4.31439689 L0,5.29494163 L0,5.49105058 L0,19.7089494 L0,19.9050584 L0,21.7680934 L0,23.9252918 C0,24.6116732 0.583150952,25.2 1.26349373,25.2 C1.55506921,25.2 1.74945286,25.1019455 2.04102833,25.0038911 L20.3130915,14.1198444 C20.7018588,13.7276265 20.9934343,13.2373541 20.9934343,12.5509728 C20.8962425,11.9626459 20.7018588,11.4723735 20.2158997,11.0801556 L1.94383651,0.196108949 Z" id="Video"></path>
            </g>
        </g>
    </g>
</svg>