<?xml version="1.0" encoding="iso-8859-1"?>
<!-- Generator: Adobe Illustrator 19.0.0, SVG Export Plug-In . SVG Version: 6.00 Build 0)  -->
<svg version="1.1" id="Capa_1" fill="#ffff" xmlns="http://www.w3.org/2000/svg" xmlns:xlink="http://www.w3.org/1999/xlink" x="0px" y="0px"
	 viewBox="0 0 377.2 377.2" style="enable-background:new 0 0 377.2 377.2;" xml:space="preserve">
<g>
	<g>
		<g>
			<path d="M218,38.494c-2.8-1.6-6.4-1.2-9.2,0.8l-102,72.8h-98c-4.8,0-8.8,4-8.8,8.8v136.4c0,4.8,4,8.8,8.8,8.8h98l102,72
				c1.6,1.2,3.2,1.6,5.2,1.6c1.2,0,2.8-0.4,4-0.8c2.8-1.6,4.8-4.4,4.8-7.6v-285.2C222.8,42.894,220.8,39.694,218,38.494z
				 M100.8,248.494H17.6v-118.8h83.2V248.494z M205.2,314.094l-86.8-61.2v-127.6l86.8-62.4V314.094z"/>
			<path d="M269.6,99.294c-4-2.8-9.6-1.6-12,2.4c-2.8,4-1.6,9.6,2.4,12c25.2,16.8,40,44.8,40,74.8s-14.8,58-39.6,74.8
				c-4,2.8-5.2,8-2.4,12c1.6,2.4,4.4,4,7.2,4c1.6,0,3.2-0.4,4.8-1.6c29.6-20,47.6-53.2,47.6-89.2
				C317.6,152.494,299.6,119.294,269.6,99.294z"/>
			<path d="M308.4,60.094c-4-2.8-9.6-1.6-12,2.4c-2.8,4-1.6,9.6,2.4,12c38,25.6,60.8,68,60.8,114c0.4,45.6-22,88-60,113.6
				c-4,2.8-5.2,8-2.4,12c1.6,2.4,4.4,4,7.2,4c1.6,0,3.2-0.4,4.8-1.6c42.4-28.8,68-76.4,68-128
				C377.2,136.894,351.6,88.894,308.4,60.094z"/>
		</g>
	</g>
</g>
<g>
</g>
<g>
</g>
<g>
</g>
<g>
</g>
<g>
</g>
<g>
</g>
<g>
</g>
<g>
</g>
<g>
</g>
<g>
</g>
<g>
</g>
<g>
</g>
<g>
</g>
<g>
</g>
<g>
</g>
</svg>
