[
    {
        "id": 1,
        "companyName": "Company Name A",
        "reportedBy": "Adam Smith",
        "subject": "Subject Title 1",
        "date": "Jan 30, 2019 10:15:12",
        "attachementCount": 2,
        "email": "A.Smith@company.com",
        "followUp": "Yes",
        "region": "North America",
        "availability": "Mon - Fri / 9am - 5pm",
        "description": "Lorem ipsum dolor sit amet, consectetur adipiscing elit, sed do eiusmod tempor incididunt ut labore et dolore magna aliqua. Ut enim ad minim veniam, quis nostrud exercitation ullamco laboris nisi ut aliquip ex ea commodo consequat.",
        "isResolved": false,
        "attachmentUrls": [{"id":1, "url":"./assets/images/beautiful.jpg"},{"id":2, "url":"./assets/images/Oil Rig.jpg"}]
    },
    {
        "id": 2,
        "companyName": "Company Name A",
        "reportedBy": "Adam Smith",
        "subject": "Subject Title 1",
        "date": "Jan 30, 2019 10:15:12",
        "attachementCount": 1,
        "email": "A.Smith@company.com",
        "followUp": "Yes",
        "region": "North America",
        "availability": "Mon - Fri / 9am - 5pm",
        "description": "Lorem ipsum dolor sit amet, consectetur adipiscing elit, sed do eiusmod tempor incididunt ut labore et dolore magna aliqua. Ut enim ad minim veniam, quis nostrud exercitation ullamco laboris nisi ut aliquip ex ea commodo consequat.",
        "isResolved": false,
        "attachmentUrls": [{"id":1, "url":"./assets/images/DesignTest.jpg"}]
    },
    {
        "id": 3,
        "companyName": "Company Name A",
        "reportedBy": "Adam Smith",
        "subject": "Subject Title 1",
        "date": "Jan 30, 2019 10:15:12",
        "attachementCount": 0,
        "email": "A.Smith@company.com",
        "followUp": "Yes",
        "region": "North America",
        "availability": "Mon - Fri / 9am - 5pm",
        "description": "Lorem ipsum dolor sit amet, consectetur adipiscing elit, sed do eiusmod tempor incididunt ut labore et dolore magna aliqua. Ut enim ad minim veniam, quis nostrud exercitation ullamco laboris nisi ut aliquip ex ea commodo consequat.",
        "isResolved": false,
        "attachmentUrls": []
    },
    {
        "id": 4,
        "companyName": "Company Name A",
        "reportedBy": "Adam Smith",
        "subject": "Subject Title 1",
        "date": "Jan 30, 2019 10:15:12",
        "attachementCount": 3,
        "email": "A.Smith@company.com",
        "followUp": "Yes",
        "region": "North America",
        "availability": "Mon - Fri / 9am - 5pm",
        "description": "Lorem ipsum dolor sit amet, consectetur adipiscing elit, sed do eiusmod tempor incididunt ut labore et dolore magna aliqua. Ut enim ad minim veniam, quis nostrud exercitation ullamco laboris nisi ut aliquip ex ea commodo consequat.",
        "isResolved": false,
        "attachmentUrls": [{"id":1, "url":"./assets/images/beautiful.jpg"},{"id":2, "url":"./assets/images/DesignTest.jpg"},{"id":3, "url":"./assets/images/Oil Rig.jpg"}]
    },
    {
        "id": 5,
        "companyName": "Company Name A",
        "reportedBy": "Adam Smith",
        "subject": "Subject Title 1",
        "date": "Jan 30, 2019 10:15:12",
        "attachementCount": 2,
        "email": "A.Smith@company.com",
        "followUp": "Yes",
        "region": "North America",
        "availability": "Mon - Fri / 9am - 5pm",
        "description": "Lorem ipsum dolor sit amet, consectetur adipiscing elit, sed do eiusmod tempor incididunt ut labore et dolore magna aliqua. Ut enim ad minim veniam, quis nostrud exercitation ullamco laboris nisi ut aliquip ex ea commodo consequat.",
        "isResolved": false,
        "attachmentUrls": [{"id":1, "url":"./assets/images/Oil Rig.jpg"},{"id":2, "url":"./assets/images/DesignTest.jpg"}]
    },
    {
        "id": 6,
        "companyName": "Company Name B",
        "reportedBy": "Adam Smith",
        "subject": "Subject Title 1",
        "date": "Jan 30, 2019 10:15:12",
        "attachementCount": 2,
        "email": "A.Smith@company.com",
        "followUp": "Yes",
        "region": "North America",
        "availability": "Mon - Fri / 9am - 5pm",
        "description": "Lorem ipsum dolor sit amet, consectetur adipiscing elit, sed do eiusmod tempor incididunt ut labore et dolore magna aliqua. Ut enim ad minim veniam, quis nostrud exercitation ullamco laboris nisi ut aliquip ex ea commodo consequat.",
        "isResolved": false,
        "attachmentUrls": [{"id":1, "url":"./assets/images/DesignTest.jpg"},{"id":2, "url":"./assets/images/Oil Rig.jpg"}]
    },
    {
        "id": 7,
        "companyName": "Company Name B",
        "reportedBy": "Adam Smith",
        "subject": "Subject Title 3",
        "date": "Jan 30, 2019 10:15:12",
        "attachementCount": 1,
        "email": "A.Smith@company.com",
        "followUp": "Yes",
        "region": "North America",
        "availability": "Mon - Fri / 9am - 5pm",
        "description": "Lorem ipsum dolor sit amet, consectetur adipiscing elit. Integer fermentum a lacus posuere maximus. Fusce sed dignissim turpis. Integer semper metus ac metus auctor placerat. Suspendisse quam ante, elementum vel blandit ac, convallis eget orci. Nam non ante ac sem venenatis malesuada in non urna. Curabitur id ultrices quam.",
        "isResolved": true,
        "attachmentUrls": [{"id":1, "url":"./assets/images/beautiful.jpg"}]
    },
    {
        "id": 8,
        "companyName": "Company Name B",
        "reportedBy": "Adam Smith",
        "subject": "Subject Title 4",
        "date": "Jan 30, 2019 10:15:12",
        "attachementCount": 0,
        "email": "A.Smith@company.com",
        "followUp": "Yes",
        "region": "North America",
        "availability": "Mon - Fri / 9am - 5pm",
        "description": "Lorem ipsum dolor sit amet, consectetur adipiscing elit, sed do eiusmod tempor incididunt ut labore et dolore magna aliqua. Ut enim ad minim veniam, quis nostrud exercitation ullamco laboris nisi ut aliquip ex ea commodo consequat.",
        "isResolved": true,
        "attachmentUrls": []
    }
]